<?xml version="1.0" ?>
<svg viewBox="0 0 32 32">
	<g>
		<g>
			<g><circle cx="16" cy="16" id="BG" r="16" style="fill:#D72828;"/>
				<path d="M14.5,25h3v-3h-3V25z M14.5,6v13h3V6H14.5z" style="fill:#E6E6E6;"/>
			</g>
		</g>
	</g>
</svg>
